<svg width="37" height="48" viewBox="0 0 37 48" fill="none" xmlns="http://www.w3.org/2000/svg">
	<path d="M20 0H12.7699L8 22H15.1297L20 0Z" fill="#1A2CCC"/>
	<path d="M12.7818 32.2772H26.3399V27H0L5.38182 32.2772H5.43357L2.06993 48H37V41.0907H10.8671L12.7818 32.2772Z" fill="#1A2CCC"/>
</svg>