<svg xmlns="http://www.w3.org/2000/svg" width="59" height="56" viewBox="0 0 59 56">
    <g fill="none" fill-rule="nonzero">
        <path fill="#B5C3C6" d="M29 2.083h8v52h-8z"/>
        <g fill="#B6C8CC">
            <path d="M29 5.083H.944A.944.944 0 0 0 0 6.027V50.14c0 .521.422.944.944.944H29V5.083zM45.889 5.083l7.111 4v38l-7.111 4h11.168a.944.944 0 0 0 .944-.944V6.027a.944.944 0 0 0-.944-.944H45.889z"/>
        </g>
        <path fill="#E3E9EC" d="M37 .201v55.598c0 .09.097.146.175.102L53 47V9L37.175.098A.118.118 0 0 0 37 .201z"/>
        <path fill="#556080" d="M29 9.083H5.345C4.602 9.083 4 9.686 4 10.429v35.309c0 .743.602 1.345 1.345 1.345H29v-38z"/>
        <g fill="#A3B8BE">
            <path d="M52 15.083h3a1 1 0 1 0 0-2h-3a1 1 0 1 0 0 2zM55 16.083h-3a1 1 0 1 0 0 2h3a1 1 0 1 0 0-2zM55 38.083h-3a1 1 0 1 0 0 2h3a1 1 0 1 0 0-2zM55 41.083h-3a1 1 0 1 0 0 2h3a1 1 0 1 0 0-2z"/>
        </g>
        <path fill="#556080" d="M2 51.083h8v4H2zM48 51.083h8v4h-8z"/>
        <g fill="#556080" transform="translate(32 4)">
            <circle cx="1" cy="1" r="1"/>
            <circle cx="1" cy="7" r="1"/>
            <circle cx="1" cy="41" r="1"/>
            <circle cx="1" cy="35" r="1"/>
            <circle cx="1" cy="13" r="1"/>
            <circle cx="1" cy="47" r="1"/>
        </g>
        <path fill="#B5C3C6" d="M40 18v4a3.015 3.015 0 0 1 3.011 3.011v5.979A3.015 3.015 0 0 1 40 34v4a7.019 7.019 0 0 0 7.011-7.011V25.01c0-3.866-3.145-7.01-7.011-7.01z"/>
        <path fill="#CFE1E5" d="M41.063 19.583h-.838v-.028H40v1.028h1.063c1.62 0 3.937 1.888 3.937 3.507v7.818c0 1.62-2.318 3.656-3.937 3.656H40v.987h1.195C43.304 36.48 46 34.035 46 31.909v-7.818c0-2.171-2.766-4.508-4.937-4.508z"/>
        <path fill="#71C285" d="M8 35.083h18v12H8z"/>
        <path fill="#4C8056" d="M8 43.083h6v2H8zM8 40.083h6v2H8zM8 37.083h6v2H8zM20 43.083h6v2h-6zM20 40.083h6v2h-6zM20 37.083h6v2h-6z"/>
        <path fill="#D1D4D1" d="M14 35.083h6v12h-6z"/>
        <path fill="#71C285" d="M8 16.083h18v12H8z"/>
        <path fill="#4C8056" d="M8 24.083h6v2H8zM8 21.083h6v2H8zM8 18.083h6v2H8zM20 24.083h6v2h-6zM20 21.083h6v2h-6zM20 18.083h6v2h-6z"/>
        <path fill="#D1D4D1" d="M14 16.083h6v12h-6z"/>
        <path fill="#B5C3C6" d="M4 28.083h25v2H4z"/>
    </g>
</svg>
